[Thu Nov 19 06:25:04.595265 2015] [mpm_prefork:notice] [pid 4617] AH00163: Apache/2.4.12 (Ubuntu) configured -- resuming normal operations
[Thu Nov 19 06:25:04.595320 2015] [core:notice] [pid 4617] AH00094: Command line: '/usr/sbin/apache2'
[Fri Nov 20 06:25:03.571360 2015] [mpm_prefork:notice] [pid 4617] AH00171: Graceful restart requested, doing restart
